[gd_scene load_steps=3 format=2]

[ext_resource path="res://scenes/rooms/TravelMonster.gd" type="Script" id=1]
[ext_resource path="res://resources/sprites/Wyrmdra.png" type="Texture" id=2]

[node name="TravelMonster" type="KinematicBody2D"]
script = ExtResource( 1 )

[node name="Sprite" type="Sprite" parent="."]
modulate = Color( 0.835294, 0.454902, 0.0862745, 1 )
position = Vector2( 3.77979, -62.7043 )
scale = Vector2( 0.5, 0.5 )
texture = ExtResource( 2 )
