[gd_resource type="Resource" load_steps=5 format=2]

[ext_resource path="res://resources/skills/SkillDamaging.gd" type="Script" id=1]
[ext_resource path="res://scenes/battle/animations/BlackHit.tscn" type="PackedScene" id=2]
[ext_resource path="res://resources/skills/elements/impl/Shadow.tres" type="Resource" id=3]
[ext_resource path="res://resources/skills/targetTypes/impl/EnemyTarget.tres" type="Resource" id=4]

[resource]
script = ExtResource( 1 )
skill_name = "Deceiving Hit"
element = ExtResource( 3 )
target = ExtResource( 4 )
charge = 0
sp_cost = 6
acc = 100
description = "The user draws attention away from themself and strikes an unsuspecting target."
setup_instructions = [  ]
hit_instructions = [ ExtResource( 2 ) ]
resolve_instructions = [  ]
power = 35
hit_count = 1
penetration = 10
crit = 4
recoil = false
hp_steal = false
status_chance = 0
target_stat_buff = [  ]
target_stat_buff_amount = 0
target_stat_debuff = [  ]
target_stat_debuff_amount = 0
self_stat_buff = [  ]
self_stat_buff_amount = 0
self_stat_debuff = [  ]
self_stat_debuff_amount = 0
target_condition_type = 0
target_min_condition_stack = 0
target_max_condition_stack = 0
self_condition_type = 0
self_min_condition_stack = 0
self_max_condition_stack = 0
