[gd_resource type="Resource" load_steps=5 format=2]

[ext_resource path="res://resources/skills/SkillDamaging.gd" type="Script" id=1]
[ext_resource path="res://scenes/battle/animations/CyanHit.tscn" type="PackedScene" id=2]
[ext_resource path="res://resources/skills/targetTypes/impl/EnemiesTarget.tres" type="Resource" id=3]
[ext_resource path="res://resources/skills/elements/impl/Wind.tres" type="Resource" id=4]

[resource]
script = ExtResource( 1 )
skill_name = "Gale Burst"
element = ExtResource( 4 )
target = ExtResource( 3 )
charge = 0
sp_cost = 5
acc = 100
description = "The user channels the wind into a strong gale hitting all enemy targets."
setup_instructions = [  ]
hit_instructions = [ ExtResource( 2 ) ]
resolve_instructions = [  ]
power = 65
hit_count = 1
penetration = 0
crit = 4
recoil = false
hp_steal = false
status_chance = 0
target_stat_buff = [  ]
target_stat_buff_amount = 0
target_stat_debuff = [  ]
target_stat_debuff_amount = 0
self_stat_buff = [  ]
self_stat_buff_amount = 0
self_stat_debuff = [  ]
self_stat_debuff_amount = 0
target_condition_type = 0
target_min_condition_stack = 1
target_max_condition_stack = 3
self_condition_type = 0
self_min_condition_stack = 0
self_max_condition_stack = 0
