[gd_resource type="Resource" load_steps=3 format=2]

[ext_resource path="res://resources/skills/SkillDamaging.gd" type="Script" id=1]
[ext_resource path="res://resources/animation/placeholders/ToLocationDefault.tres" type="SpriteFrames" id=2]

[resource]
script = ExtResource( 1 )
skill_name = "Siphon"
element = 13
target = 0
side = 1
type = 0
charge_time = 120
sp_cost = 10
acc = 95
description = "Dark energy sucks the life from a target, partially healing the user."
animation_type = 3
frames = ExtResource( 2 )
power = 40
hit_count = 1
penetration = 0
crit = 4
recoil = false
hp_steal = true
status_chance = 0
target_stat_buff = [  ]
target_stat_buff_amount = 0
target_stat_debuff = [  ]
target_stat_debuff_amount = 0
self_stat_buff = [  ]
self_stat_buff_amount = 0
self_stat_debuff = [  ]
self_stat_debuff_amount = 0
target_condition_type = 0
target_min_condition_stack = 0
target_max_condition_stack = 0
self_condition_type = 0
self_min_condition_stack = 0
self_max_condition_stack = 0
