[gd_resource type="Resource" load_steps=3 format=2]

[ext_resource path="res://resources/skills/SkillStatus.gd" type="Script" id=1]
[ext_resource path="res://resources/animation/placeholders/SourceDefault.tres" type="SpriteFrames" id=2]

[resource]
script = ExtResource( 1 )
skill_name = "Stare"
element = 0
target = 0
side = 1
type = 2
charge_time = 120
sp_cost = 6
acc = 70
description = "The user looks at a target, instilling them with fear. This lowers the targets defense."
animation_type = 0
frames = ExtResource( 2 )
target_stat_buff = [  ]
target_stat_buff_amount = 0
target_stat_debuff = [ "def" ]
target_stat_debuff_amount = -1
self_stat_buff = [  ]
self_stat_buff_amount = 0
self_stat_debuff = [  ]
self_stat_debuff_amount = 0
target_condition_type = 0
target_min_condition_stack = 0
target_max_condition_stack = 0
self_condition_type = 0
self_min_condition_stack = 0
self_max_condition_stack = 0
