[gd_resource type="Resource" load_steps=2 format=2]

[ext_resource path="res://resources/monsters/families/Family.gd" type="Script" id=1]

[resource]
script = ExtResource( 1 )
text = "AQUATIC"
neutral = 0
fire = 2
ice = 0
elec = 1
wind = 0
earth = 0
water = 2
nature = 1
poison = 0
metal = 0
psi = 0
martial = 0
light = 0
shadow = 0
