[gd_resource type="Resource" load_steps=2 format=2]

[ext_resource path="res://resources/monsters/families/Family.gd" type="Script" id=1]

[resource]
script = ExtResource( 1 )
text = "PLANT"
neutral = 0
fire = 1
ice = 1
elec = 0
wind = 0
earth = 0
water = 2
nature = 2
poison = 1
metal = 0
psi = 0
martial = 0
light = 2
shadow = 0
