[gd_resource type="Resource" load_steps=4 format=2]

[ext_resource path="res://resources/monsters/MonsterData.gd" type="Script" id=1]
[ext_resource path="res://resources/sprites/Beetleboy.png" type="Texture" id=2]
[ext_resource path="res://resources/monsters/families/impl/Insectoid.tres" type="Resource" id=5]

[resource]
script = ExtResource( 1 )
species = "Beetleboy"
family1 = ExtResource( 5 )
texture = ExtResource( 2 )
spriteframes_path = "res://resources/spriteframes/monsters/default.tres"
exp_rate = 0
exp_value = 51
base_hp = 35
base_def = 30
base_agi = 45
base_str = 30
base_dex = 30
base_int = 15
evolutions = [  ]
skill_config = "{
	\"0\": [\"Bash\", \"Stare\"],
	\"5\": [\"Jab\"],
	\"8\": [\"Jolt\"],
	\"14\": [\"Aim\"],
	\"18\": [\"ZipZap\"],
	\"21\": [\"RazorSwipe\"],
	\"27\": [\"RapidFists\"],
	\"32\": [\"RapidBolts\"],
	\"38\": [\"Battlecry\"],
	\"44\": [\"DoubleWhack\"]
}"
evo_config = [  ]
