[gd_resource type="Resource" load_steps=4 format=2]

[ext_resource path="res://resources/monsters/MonsterData.gd" type="Script" id=1]
[ext_resource path="res://resources/sprites/Wyrmdra.png" type="Texture" id=2]
[ext_resource path="res://resources/monsters/families/impl/Dragon.tres" type="Resource" id=3]

[resource]
script = ExtResource( 1 )
species = "Wyrmdra"
family1 = ExtResource( 3 )
texture = ExtResource( 2 )
spriteframes_path = "res://resources/spriteframes/monsters/Wyrmdra.tres"
exp_rate = 1
exp_value = 50
base_hp = 50
base_def = 40
base_agi = 30
base_str = 40
base_dex = 25
base_int = 25
evolutions = [  ]
skill_config = "{
	\"0\": [\"Bash\", \"Stare\"],
	\"7\": [\"Spitfire\"],
	\"14\": [\"Chomp\"],
	\"21\": [\"Coil\"],
	\"25\": [\"VenomFang\"],
	\"32\": [\"SteelyGaze\"],
	\"40\": [\"Inferno\"]
}"
evo_config = [  ]
