[gd_scene load_steps=16 format=2]

[ext_resource path="res://icon.png" type="Texture" id=1]
[ext_resource path="res://scenes/rooms/Player.gd" type="Script" id=2]
[ext_resource path="res://scenes/rooms/TravelMonster.tscn" type="PackedScene" id=3]
[ext_resource path="res://resources/tiles/mainlevbuild.png" type="Texture" id=4]
[ext_resource path="res://scenes/components/TallGrassYsort.tscn" type="PackedScene" id=5]
[ext_resource path="res://scenes/rooms/overworld/Overworld.gd" type="Script" id=6]
[ext_resource path="res://scenes/rooms/PartyYsort.gd" type="Script" id=7]
[ext_resource path="res://resources/sprites/Wyrmdra.png" type="Texture" id=22]
[ext_resource path="res://scenes/tiles/GrassyRouteTileset.tres" type="TileSet" id=23]
[ext_resource path="res://scenes/tiles/StaticTileset.tres" type="TileSet" id=24]

[sub_resource type="RectangleShape2D" id=1]
extents = Vector2( 30.5407, 30.6032 )

[sub_resource type="RectangleShape2D" id=2]
extents = Vector2( 238.525, 94.945 )

[sub_resource type="RectangleShape2D" id=3]
extents = Vector2( 29.7264, 214.35 )

[sub_resource type="StyleBoxFlat" id=4]
bg_color = Color( 0.0509804, 0.105882, 0.27451, 0.854902 )

[sub_resource type="StyleBoxFlat" id=5]
bg_color = Color( 0.145098, 0.92549, 0.207843, 1 )

[node name="Overworld" type="Node2D"]
script = ExtResource( 6 )
go_to_rooms = [ "res://scenes/rooms/overworld/Route1.tscn", "res://scenes/rooms/overworld/Route2.tscn", "res://scenes/rooms/overworld/Route4.tscn" ]
go_to_pos = [ Vector2( 2048, 0 ), Vector2( 0, 4608 ), Vector2( 5120, 6400 ) ]

[node name="Sprite" type="Sprite" parent="."]
visible = false
position = Vector2( 557.963, 448.506 )
scale = Vector2( 6.81211, 5.67194 )
texture = ExtResource( 4 )
region_enabled = true
region_rect = Rect2( 624, 0, 144, 144 )

[node name="FloorTiles" type="TileMap" parent="."]
tile_set = ExtResource( 23 )
cell_size = Vector2( 128, 128 )
cell_tile_origin = 2
centered_textures = true
format = 1
tile_data = PoolIntArray( -65538, 22, 0, -65537, 22, 0, -131072, 22, 0, -131071, 22, 0, -131070, 22, 0, -131069, 22, 0, -131068, 22, 0, -131067, 22, 0, -131066, 22, 0, -131065, 22, 0, -131064, 22, 0, -131063, 22, 0, -131062, 22, 0, -131061, 22, 0, -131060, 22, 0, -131059, 22, 0, -131058, 22, 0, -131057, 22, 0, -131056, 22, 0, -131055, 22, 0, -131054, 22, 0, -131053, 22, 0, -131052, 22, 0, -131051, 22, 0, -131050, 22, 0, -2, 22, 0, -1, 22, 0, -65536, 22, 0, -65535, 22, 0, -65534, 22, 0, -65533, 22, 0, -65532, 22, 0, -65531, 22, 0, -65530, 22, 0, -65529, 22, 0, -65528, 22, 0, -65527, 22, 0, -65526, 22, 0, -65525, 22, 0, -65524, 22, 0, -65523, 22, 0, -65522, 22, 0, -65521, 22, 0, -65520, 22, 0, -65519, 22, 0, -65518, 22, 0, -65517, 22, 0, -65516, 22, 0, -65515, 22, 0, -65514, 22, 0, 65534, 22, 0, 65535, 22, 0, 0, 22, 0, 1, 22, 0, 2, 22, 0, 3, 22, 0, 4, 22, 0, 5, 22, 0, 6, 22, 0, 7, 22, 0, 8, 22, 0, 9, 23, 0, 10, 22, 0, 11, 22, 0, 12, 22, 0, 13, 22, 0, 14, 22, 0, 15, 22, 0, 16, 22, 0, 17, 22, 0, 18, 22, 0, 19, 22, 0, 20, 22, 0, 21, 22, 0, 22, 22, 0, 131070, 22, 0, 131071, 22, 0, 65536, 22, 0, 65537, 22, 0, 65538, 22, 0, 65539, 22, 0, 65540, 22, 0, 65541, 22, 0, 65542, 22, 0, 65543, 22, 0, 65544, 22, 0, 65545, 22, 0, 65546, 22, 0, 65547, 22, 0, 65548, 22, 0, 65549, 22, 0, 65550, 22, 0, 65551, 22, 0, 65552, 22, 0, 65553, 22, 0, 65554, 22, 0, 65555, 22, 0, 65556, 22, 0, 65557, 22, 0, 65558, 22, 0, 196606, 22, 0, 196607, 22, 0, 131072, 22, 0, 131073, 22, 0, 131074, 22, 0, 131075, 22, 0, 131076, 22, 0, 131077, 22, 0, 131078, 22, 0, 131079, 22, 0, 131080, 22, 0, 131081, 22, 0, 131082, 22, 0, 131083, 22, 0, 131084, 22, 0, 131085, 22, 0, 131086, 22, 0, 131087, 22, 0, 131088, 22, 0, 131089, 22, 0, 131090, 22, 0, 131091, 22, 0, 131092, 22, 0, 131093, 22, 0, 131094, 22, 0, 262142, 22, 0, 262143, 22, 0, 196608, 22, 0, 196609, 22, 0, 196610, 22, 0, 196611, 22, 0, 196612, 22, 0, 196613, 22, 0, 196614, 22, 0, 196615, 22, 0, 196616, 22, 0, 196617, 22, 0, 196618, 22, 0, 196619, 22, 0, 196620, 22, 0, 196621, 22, 0, 196622, 22, 0, 196623, 22, 0, 196624, 22, 0, 196625, 22, 0, 196626, 22, 0, 196627, 22, 0, 196628, 22, 0, 196629, 22, 0, 196630, 22, 0, 327678, 22, 0, 327679, 22, 0, 262144, 22, 0, 262145, 22, 0, 262146, 22, 0, 262147, 22, 0, 262148, 22, 0, 262149, 22, 0, 262150, 22, 0, 262151, 22, 0, 262152, 22, 0, 262153, 22, 0, 262154, 22, 0, 262155, 22, 0, 262156, 22, 0, 262157, 22, 0, 262158, 22, 0, 262159, 22, 0, 262160, 22, 0, 262161, 22, 0, 262162, 22, 0, 262163, 22, 0, 262164, 22, 0, 262165, 22, 0, 262166, 22, 0, 393214, 22, 0, 393215, 22, 0, 327680, 22, 0, 327681, 22, 0, 327682, 22, 0, 327683, 25, 0, 327684, 22, 0, 327685, 22, 0, 327686, 22, 0, 327687, 22, 0, 327688, 22, 0, 327689, 22, 0, 327690, 22, 0, 327691, 22, 0, 327692, 22, 0, 327693, 22, 0, 327694, 22, 0, 327695, 22, 0, 327696, 22, 0, 327697, 22, 0, 327698, 22, 0, 327699, 22, 0, 327700, 22, 0, 327701, 22, 0, 327702, 22, 0, 458750, 22, 0, 458751, 22, 0, 393216, 22, 0, 393217, 22, 0, 393218, 22, 0, 393219, 22, 0, 393220, 22, 0, 393221, 22, 0, 393222, 22, 0, 393223, 22, 0, 393224, 22, 0, 393225, 22, 0, 393226, 22, 0, 393227, 22, 0, 393228, 22, 0, 393229, 22, 0, 393230, 22, 0, 393231, 22, 0, 393232, 22, 0, 393233, 22, 0, 393234, 22, 0, 393235, 22, 0, 393236, 22, 0, 393237, 22, 0, 393238, 22, 0, 524286, 22, 0, 524287, 22, 0, 458752, 22, 0, 458753, 22, 0, 458754, 22, 0, 458755, 22, 0, 458756, 22, 0, 458757, 22, 0, 458758, 22, 0, 458759, 22, 0, 458760, 22, 0, 458761, 22, 0, 458762, 25, 0, 458763, 25, 0, 458764, 22, 0, 458765, 22, 0, 458766, 22, 0, 458767, 22, 0, 458768, 22, 0, 458769, 22, 0, 458770, 22, 0, 458771, 22, 0, 458772, 22, 0, 458773, 22, 0, 458774, 22, 0, 589822, 22, 0, 589823, 22, 0, 524288, 22, 0, 524289, 22, 0, 524290, 22, 0, 524291, 22, 0, 524292, 22, 0, 524293, 22, 0, 524294, 22, 0, 524295, 22, 0, 524296, 22, 0, 524297, 22, 0, 524298, 22, 0, 524299, 25, 0, 524300, 25, 0, 524301, 22, 0, 524302, 22, 0, 524303, 22, 0, 524304, 22, 0, 524305, 22, 0, 524306, 22, 0, 524307, 22, 0, 524308, 22, 0, 524309, 22, 0, 524310, 22, 0, 655358, 22, 0, 655359, 22, 0, 589824, 22, 0, 589825, 22, 0, 589826, 22, 0, 589827, 22, 0, 589828, 22, 0, 589829, 22, 0, 589830, 22, 0, 589831, 22, 0, 589832, 22, 0, 589833, 22, 0, 589834, 25, 0, 589835, 22, 0, 589836, 25, 0, 589837, 25, 0, 589838, 22, 0, 589839, 22, 0, 589840, 22, 0, 589841, 22, 0, 589842, 22, 0, 589843, 22, 0, 589844, 22, 0, 589845, 22, 0, 589846, 22, 0, 720894, 22, 0, 720895, 22, 0, 655360, 22, 0, 655361, 22, 0, 655362, 22, 0, 655363, 22, 0, 655364, 22, 0, 655365, 22, 0, 655366, 22, 0, 655367, 22, 0, 655368, 22, 0, 655369, 22, 0, 655370, 22, 0, 655371, 22, 0, 655372, 22, 0, 655373, 22, 0, 655374, 22, 0, 655375, 22, 0, 655376, 22, 0, 655377, 22, 0, 655378, 22, 0, 655379, 22, 0, 655380, 22, 0, 655381, 22, 0, 655382, 22, 0, 786430, 22, 0, 786431, 22, 0, 720896, 22, 0, 720897, 22, 0, 720898, 22, 0, 720899, 22, 0, 720900, 22, 0, 720901, 22, 0, 720902, 22, 0, 720903, 22, 0, 720904, 22, 0, 720905, 22, 0, 720906, 22, 0, 720907, 22, 0, 720908, 22, 0, 720909, 22, 0, 720910, 22, 0, 720911, 22, 0, 720912, 22, 0, 720913, 22, 0, 720914, 22, 0, 720915, 22, 0, 720916, 22, 0, 720917, 22, 0, 720918, 22, 0, 851966, 22, 0, 851967, 22, 0, 786432, 22, 0, 786433, 22, 0, 786434, 22, 0, 786435, 22, 0, 786436, 22, 0, 786437, 22, 0, 786438, 22, 0, 786439, 22, 0, 786440, 22, 0, 786441, 22, 0, 786442, 22, 0, 786443, 22, 0, 786444, 22, 0, 786445, 22, 0, 786446, 22, 0, 786447, 22, 0, 786448, 22, 0, 786449, 22, 0, 786450, 22, 0, 786451, 22, 0, 786452, 22, 0, 786453, 22, 0, 786454, 22, 0, 917502, 22, 0, 917503, 22, 0, 851968, 22, 0, 851969, 22, 0, 851970, 22, 0, 851971, 22, 0, 851972, 22, 0, 851973, 22, 0, 851974, 22, 0, 851975, 22, 0, 851976, 22, 0, 851977, 22, 0, 851978, 22, 0, 851979, 22, 0, 851980, 22, 0, 851981, 22, 0, 851982, 22, 0, 851983, 22, 0, 851984, 22, 0, 851985, 22, 0, 851986, 22, 0, 851987, 22, 0, 851988, 22, 0, 851989, 22, 0, 851990, 22, 0, 983038, 22, 0, 983039, 22, 0, 917504, 22, 0, 917505, 22, 0, 917506, 22, 0, 917507, 22, 0, 917508, 22, 0, 917509, 22, 0, 917510, 22, 0, 917511, 22, 0, 917512, 22, 0, 917513, 22, 0, 917514, 22, 0, 917515, 22, 0, 917516, 22, 0, 917517, 22, 0, 917518, 22, 0, 917519, 22, 0, 917520, 22, 0, 917521, 22, 0, 917522, 22, 0, 917523, 22, 0, 917524, 22, 0, 917525, 25, 0, 917526, 22, 0, 1048574, 22, 0, 1048575, 22, 0, 983040, 22, 0, 983041, 22, 0, 983042, 22, 0, 983043, 22, 0, 983044, 22, 0, 983045, 22, 0, 983046, 22, 0, 983047, 22, 0, 983048, 22, 0, 983049, 22, 0, 983050, 22, 0, 983051, 22, 0, 983052, 22, 0, 983053, 22, 0, 983054, 22, 0, 983055, 22, 0, 983056, 22, 0, 983057, 22, 0, 983058, 22, 0, 983059, 22, 0, 983060, 22, 0, 983061, 22, 0, 983062, 22, 0, 1114110, 22, 0, 1114111, 22, 0, 1048576, 22, 0, 1048577, 22, 0, 1048578, 22, 0, 1048579, 22, 0, 1048580, 22, 0, 1048581, 22, 0, 1048582, 22, 0, 1048583, 22, 0, 1048584, 22, 0, 1048585, 22, 0, 1048586, 22, 0, 1048587, 22, 0, 1048588, 22, 0, 1048589, 22, 0, 1048590, 22, 0, 1048591, 22, 0, 1048592, 22, 0, 1048593, 22, 0, 1048594, 22, 0, 1048595, 22, 0, 1048596, 22, 0, 1048597, 22, 0, 1048598, 22, 0, 1179646, 22, 0, 1179647, 22, 0, 1114112, 22, 0, 1114113, 22, 0, 1114114, 22, 0, 1114115, 22, 0, 1114116, 22, 0, 1114117, 22, 0, 1114118, 22, 0, 1114119, 22, 0, 1114120, 25, 0, 1114121, 22, 0, 1114122, 22, 0, 1114123, 22, 0, 1114124, 22, 0, 1114125, 22, 0, 1114126, 22, 0, 1114127, 22, 0, 1114128, 22, 0, 1114129, 22, 0, 1114130, 22, 0, 1114131, 22, 0, 1114132, 22, 0, 1114133, 22, 0, 1114134, 22, 0, 1245182, 22, 0, 1245183, 22, 0, 1179648, 22, 0, 1179649, 22, 0, 1179650, 22, 0, 1179651, 22, 0, 1179652, 25, 0, 1179653, 22, 0, 1179654, 22, 0, 1179655, 22, 0, 1179656, 22, 0, 1179657, 22, 0, 1179658, 22, 0, 1179659, 22, 0, 1179660, 22, 0, 1179661, 22, 0, 1179662, 22, 0, 1179663, 22, 0, 1179664, 22, 0, 1179665, 22, 0, 1179666, 22, 0, 1179667, 22, 0, 1179668, 22, 0, 1179669, 22, 0, 1179670, 22, 0, 1310718, 22, 0, 1310719, 22, 0, 1245184, 22, 0, 1245185, 22, 0, 1245186, 22, 0, 1245187, 25, 0, 1245188, 25, 0, 1245189, 22, 0, 1245190, 22, 0, 1245191, 22, 0, 1245192, 22, 0, 1245193, 22, 0, 1245194, 22, 0, 1245195, 22, 0, 1245196, 22, 0, 1245197, 22, 0, 1245198, 22, 0, 1245199, 22, 0, 1245200, 22, 0, 1245201, 22, 0, 1245202, 22, 0, 1245203, 22, 0, 1245204, 26, 0, 1245205, 22, 0, 1245206, 22, 0, 1376254, 22, 0, 1376255, 22, 0, 1310720, 22, 0, 1310721, 22, 0, 1310722, 22, 0, 1310723, 22, 0, 1310724, 22, 0, 1310725, 22, 0, 1310726, 22, 0, 1310727, 22, 0, 1310728, 22, 0, 1310729, 22, 0, 1310730, 22, 0, 1310731, 22, 0, 1310732, 22, 0, 1310733, 22, 0, 1310734, 22, 0, 1310735, 22, 0, 1310736, 22, 0, 1310737, 22, 0, 1310738, 22, 0, 1310739, 22, 0, 1310740, 22, 0, 1310741, 22, 0, 1310742, 22, 0, 1441790, 22, 0, 1441791, 22, 0, 1376256, 22, 0, 1376257, 22, 0, 1376258, 22, 0, 1376259, 22, 0, 1376260, 22, 0, 1376261, 22, 0, 1376262, 22, 0, 1376263, 22, 0, 1376264, 22, 0, 1376265, 22, 0, 1376266, 22, 0, 1376267, 22, 0, 1376268, 22, 0, 1376269, 22, 0, 1376270, 22, 0, 1376271, 22, 0, 1376272, 22, 0, 1376273, 22, 0, 1376274, 22, 0, 1376275, 22, 0, 1376276, 22, 0, 1376277, 22, 0, 1376278, 22, 0, 1507326, 22, 0, 1507327, 22, 0, 1441792, 22, 0, 1441793, 22, 0, 1441794, 22, 0, 1441795, 22, 0, 1441796, 22, 0, 1441797, 22, 0, 1441798, 22, 0, 1441799, 22, 0, 1441800, 22, 0, 1441801, 22, 0, 1441802, 22, 0, 1441803, 22, 0, 1441804, 22, 0, 1441805, 22, 0, 1441806, 22, 0, 1441807, 22, 0, 1441808, 22, 0, 1441809, 22, 0, 1441810, 22, 0, 1441811, 22, 0, 1441812, 22, 0, 1441813, 22, 0, 1441814, 22, 0 )

[node name="OverworldYsort" type="YSort" parent="."]

[node name="PartyYsort" type="YSort" parent="OverworldYsort"]
script = ExtResource( 7 )

[node name="TravelMonster1" parent="OverworldYsort/PartyYsort" instance=ExtResource( 3 )]

[node name="TravelMonster2" parent="OverworldYsort/PartyYsort" instance=ExtResource( 3 )]

[node name="TravelMonster3" parent="OverworldYsort/PartyYsort" instance=ExtResource( 3 )]

[node name="Player" type="KinematicBody2D" parent="OverworldYsort/PartyYsort"]
position = Vector2( 353.369, 332.695 )
script = ExtResource( 2 )
__meta__ = {
"_edit_group_": true
}

[node name="Sprite" type="Sprite" parent="OverworldYsort/PartyYsort/Player"]
position = Vector2( 0, -32 )
scale = Vector2( 2, 2 )
texture = ExtResource( 1 )

[node name="CollisionShape2D" type="CollisionShape2D" parent="OverworldYsort/PartyYsort/Player"]
position = Vector2( 0, -32 )
scale = Vector2( 2, 2 )
shape = SubResource( 1 )

[node name="Camera2D" type="Camera2D" parent="OverworldYsort/PartyYsort/Player"]
current = true
zoom = Vector2( 1.2, 1.2 )
limit_left = -192
limit_top = -192
limit_right = 2880
limit_bottom = 2880
limit_smoothed = true
smoothing_enabled = true
smoothing_speed = 3.0

[node name="ObjectTiles" type="TileMap" parent="OverworldYsort"]
tile_set = ExtResource( 24 )
cell_size = Vector2( 128, 64 )
cell_half_offset = 0
cell_tile_origin = 2
cell_y_sort = true
format = 1
tile_data = PoolIntArray( -458752, 3, 0, -458749, 3, 0, -458743, 3, 0, -458742, 3, 0, -458739, 3, 0, -458738, 3, 0, -458737, 3, 0, -327682, 3, 0, -327681, 3, 0, -393216, 3, 0, -393214, 3, 0, -393213, 3, 0, -393212, 3, 0, -393211, 3, 0, -393210, 3, 0, -393208, 3, 0, -393207, 3, 0, -393205, 3, 0, -393204, 3, 0, -393203, 3, 0, -393201, 3, 0, -393200, 3, 0, -393199, 3, 0, -393198, 3, 0, -393196, 3, 0, -262147, 3, 0, -262146, 3, 0, -327680, 3, 0, -327679, 3, 0, -327678, 3, 0, -327677, 3, 0, -327676, 3, 0, -327675, 3, 0, -327674, 3, 0, -327673, 3, 0, -327672, 3, 0, -327671, 3, 0, -327670, 3, 0, -327669, 3, 0, -327668, 3, 0, -327667, 3, 0, -327666, 3, 0, -327665, 3, 0, -327664, 3, 0, -327663, 3, 0, -327662, 3, 0, -327661, 3, 0, -327660, 3, 0, -327659, 3, 0, -327658, 3, 0, -327657, 3, 0, -262126, 3, 0, -262125, 3, 0, -262124, 3, 0, -262123, 3, 0, -262122, 3, 0, -131075, 3, 0, -131074, 3, 0, -65539, 3, 0, -65538, 3, 0, -131049, 3, 0, -3, 3, 0, -2, 3, 0, -65514, 3, 0, -65513, 3, 0, 65534, 3, 0, 22, 3, 0, 131069, 3, 0, 65558, 3, 0, 196606, 3, 0, 131094, 3, 0, 131095, 3, 0, 196630, 3, 0, 327677, 3, 0, 327678, 3, 0, 262166, 3, 0, 393213, 3, 0, 327702, 3, 0, 327703, 3, 0, 458750, 3, 0, 393238, 3, 0, 524284, 3, 0, 524285, 3, 0, 458773, 3, 0, 458774, 3, 0, 458775, 3, 0, 589822, 3, 0, 524310, 3, 0, 524311, 3, 0, 589845, 3, 0, 589846, 3, 0, 589847, 3, 0, 720893, 3, 0, 720894, 3, 0, 655382, 3, 0, 720918, 3, 0, 720919, 3, 0, 851965, 3, 0, 851966, 3, 0, 786454, 3, 0, 917501, 3, 0, 851990, 3, 0, 983038, 3, 0, 917527, 3, 0, 983063, 3, 0, 1572860, 3, 0, 1507350, 3, 0, 1507351, 3, 0, 1638397, 3, 0, 1638398, 3, 0, 1572886, 3, 0, 1638422, 3, 0, 1638423, 3, 0, 1769470, 3, 0, 1703958, 3, 0, 1835005, 3, 0, 1769494, 3, 0, 1900541, 3, 0, 1900542, 3, 0, 1835030, 3, 0, 1835031, 3, 0, 1900566, 3, 0, 2031614, 3, 0, 1966102, 3, 0, 2031638, 3, 0, 2031639, 3, 0, 2162685, 3, 0, 2162686, 3, 0, 2097174, 3, 0, 2162710, 3, 0, 2293756, 3, 0, 2293758, 3, 0, 2228246, 3, 0, 2228247, 3, 0, 2228248, 3, 0, 2293782, 3, 0, 2424830, 3, 0, 2359318, 3, 0, 2490365, 3, 0, 2424854, 3, 0, 2424855, 3, 0, 2555902, 3, 0, 2490390, 3, 0, 2621437, 3, 0, 2555926, 3, 0, 2686974, 3, 0, 2621462, 3, 0, 2686998, 3, 0, 2686999, 3, 0, 2818045, 3, 0, 2818046, 3, 0, 2752534, 3, 0, 2883582, 3, 0, 2818070, 3, 0, 2949117, 3, 0, 2949118, 3, 0, 2949119, 3, 0, 2883601, 3, 0, 2883602, 3, 0, 2883607, 3, 0, 3014654, 3, 0, 3014655, 3, 0, 2949120, 3, 0, 2949133, 3, 0, 2949134, 3, 0, 2949135, 3, 0, 2949136, 3, 0, 2949137, 3, 0, 2949138, 3, 0, 2949139, 3, 0, 2949140, 3, 0, 2949141, 3, 0, 2949142, 3, 0, 3080190, 3, 0, 3080191, 3, 0, 3014656, 3, 0, 3014657, 3, 0, 3014658, 3, 0, 3014659, 3, 0, 3014660, 3, 0, 3014661, 3, 0, 3014662, 3, 0, 3014663, 3, 0, 3014664, 3, 0, 3014669, 3, 0, 3014670, 3, 0, 3014671, 3, 0, 3014672, 3, 0, 3014673, 3, 0, 3014674, 3, 0, 3014675, 3, 0, 3014676, 3, 0, 3014677, 3, 0, 3014678, 3, 0, 3080197, 3, 0, 3080198, 3, 0, 3145730, 3, 0, 3145732, 3, 0 )

[node name="TallGrassYsort" parent="OverworldYsort" instance=ExtResource( 5 )]

[node name="YSort" type="YSort" parent="OverworldYsort"]

[node name="GateSouth" type="Area2D" parent="OverworldYsort"]
position = Vector2( 1405.8, 3020.83 )
__meta__ = {
"_edit_group_": true
}

[node name="CollisionShape2D" type="CollisionShape2D" parent="OverworldYsort/GateSouth"]
shape = SubResource( 2 )

[node name="GateEast" type="Area2D" parent="OverworldYsort"]
position = Vector2( 2944, 1248 )
__meta__ = {
"_edit_group_": true
}

[node name="CollisionShape2D" type="CollisionShape2D" parent="OverworldYsort/GateEast"]
shape = SubResource( 3 )

[node name="GateWest" type="Area2D" parent="OverworldYsort"]
position = Vector2( -255.422, 1246.35 )
__meta__ = {
"_edit_group_": true
}

[node name="CollisionShape2D" type="CollisionShape2D" parent="OverworldYsort/GateWest"]
shape = SubResource( 3 )

[node name="UI" type="Node" parent="."]

[node name="Control" type="Control" parent="UI"]
visible = false
anchor_right = 2.001
anchor_bottom = 1.995
margin_right = 0.0795898
margin_bottom = 0.399902
__meta__ = {
"_edit_use_anchors_": false
}

[node name="MarginContainer" type="MarginContainer" parent="UI/Control"]
anchor_right = 1.0
anchor_bottom = 1.0
custom_constants/margin_right = 128
custom_constants/margin_top = 128
custom_constants/margin_left = 128
custom_constants/margin_bottom = 128
__meta__ = {
"_edit_use_anchors_": false
}

[node name="Panel" type="Panel" parent="UI/Control/MarginContainer"]
margin_left = 128.0
margin_top = 128.0
margin_right = 3713.0
margin_bottom = 2027.0
custom_styles/panel = SubResource( 4 )

[node name="Tabs" type="Tabs" parent="UI/Control/MarginContainer/Panel"]
anchor_right = 1.0
anchor_bottom = 1.0
__meta__ = {
"_edit_use_anchors_": false
}

[node name="CenterContainer" type="CenterContainer" parent="UI/Control/MarginContainer/Panel/Tabs"]
anchor_right = 1.0
anchor_bottom = 1.0
__meta__ = {
"_edit_use_anchors_": false
}

[node name="GridContainer" type="GridContainer" parent="UI/Control/MarginContainer/Panel/Tabs/CenterContainer"]
margin_left = 498.0
margin_top = 87.0
margin_right = 3086.0
margin_bottom = 1811.0
columns = 3
__meta__ = {
"_edit_use_anchors_": false
}

[node name="CenterContainer" type="CenterContainer" parent="UI/Control/MarginContainer/Panel/Tabs/CenterContainer/GridContainer"]
margin_right = 860.0
margin_bottom = 860.0
rect_min_size = Vector2( 860, 860 )

[node name="VBoxContainer" type="VBoxContainer" parent="UI/Control/MarginContainer/Panel/Tabs/CenterContainer/GridContainer/CenterContainer"]
margin_left = 250.0
margin_top = 227.0
margin_right = 610.0
margin_bottom = 633.0

[node name="TextureRect" type="TextureRect" parent="UI/Control/MarginContainer/Panel/Tabs/CenterContainer/GridContainer/CenterContainer/VBoxContainer"]
margin_right = 360.0
margin_bottom = 360.0
texture = ExtResource( 22 )

[node name="Label" type="Label" parent="UI/Control/MarginContainer/Panel/Tabs/CenterContainer/GridContainer/CenterContainer/VBoxContainer"]
margin_top = 364.0
margin_right = 360.0
margin_bottom = 378.0
custom_colors/font_color = Color( 1, 1, 1, 1 )
text = "Monster Name"
align = 1

[node name="ProgressBar" type="ProgressBar" parent="UI/Control/MarginContainer/Panel/Tabs/CenterContainer/GridContainer/CenterContainer/VBoxContainer"]
margin_top = 382.0
margin_right = 360.0
margin_bottom = 406.0
rect_min_size = Vector2( 0, 24 )
custom_styles/fg = SubResource( 5 )
value = 50.0
percent_visible = false
__meta__ = {
"_edit_use_anchors_": false
}

[node name="CenterContainer2" type="CenterContainer" parent="UI/Control/MarginContainer/Panel/Tabs/CenterContainer/GridContainer"]
margin_left = 864.0
margin_right = 1724.0
margin_bottom = 860.0
rect_min_size = Vector2( 860, 860 )

[node name="VBoxContainer" type="VBoxContainer" parent="UI/Control/MarginContainer/Panel/Tabs/CenterContainer/GridContainer/CenterContainer2"]
margin_left = 250.0
margin_top = 238.0
margin_right = 610.0
margin_bottom = 621.0

[node name="TextureRect" type="TextureRect" parent="UI/Control/MarginContainer/Panel/Tabs/CenterContainer/GridContainer/CenterContainer2/VBoxContainer"]
margin_right = 360.0
margin_bottom = 360.0
texture = ExtResource( 22 )

[node name="Label" type="Label" parent="UI/Control/MarginContainer/Panel/Tabs/CenterContainer/GridContainer/CenterContainer2/VBoxContainer"]
margin_top = 364.0
margin_right = 360.0
margin_bottom = 378.0
custom_colors/font_color = Color( 1, 1, 1, 1 )
text = "Monster Name"
align = 1

[node name="ProgressBar" type="ProgressBar" parent="UI/Control/MarginContainer/Panel/Tabs/CenterContainer/GridContainer/CenterContainer2/VBoxContainer"]
margin_top = 382.0
margin_right = 360.0
margin_bottom = 383.0
custom_styles/fg = SubResource( 5 )
value = 50.0
percent_visible = false
__meta__ = {
"_edit_use_anchors_": false
}

[node name="CenterContainer3" type="CenterContainer" parent="UI/Control/MarginContainer/Panel/Tabs/CenterContainer/GridContainer"]
margin_left = 1728.0
margin_right = 2588.0
margin_bottom = 860.0
rect_min_size = Vector2( 860, 860 )

[node name="VBoxContainer" type="VBoxContainer" parent="UI/Control/MarginContainer/Panel/Tabs/CenterContainer/GridContainer/CenterContainer3"]
margin_left = 250.0
margin_top = 238.0
margin_right = 610.0
margin_bottom = 621.0

[node name="TextureRect" type="TextureRect" parent="UI/Control/MarginContainer/Panel/Tabs/CenterContainer/GridContainer/CenterContainer3/VBoxContainer"]
margin_right = 360.0
margin_bottom = 360.0
texture = ExtResource( 22 )

[node name="Label" type="Label" parent="UI/Control/MarginContainer/Panel/Tabs/CenterContainer/GridContainer/CenterContainer3/VBoxContainer"]
margin_top = 364.0
margin_right = 360.0
margin_bottom = 378.0
custom_colors/font_color = Color( 1, 1, 1, 1 )
text = "Monster Name"
align = 1

[node name="ProgressBar" type="ProgressBar" parent="UI/Control/MarginContainer/Panel/Tabs/CenterContainer/GridContainer/CenterContainer3/VBoxContainer"]
margin_top = 382.0
margin_right = 360.0
margin_bottom = 383.0
custom_styles/fg = SubResource( 5 )
value = 50.0
percent_visible = false
__meta__ = {
"_edit_use_anchors_": false
}

[node name="CenterContainer4" type="CenterContainer" parent="UI/Control/MarginContainer/Panel/Tabs/CenterContainer/GridContainer"]
margin_top = 864.0
margin_right = 860.0
margin_bottom = 1724.0
rect_min_size = Vector2( 860, 860 )

[node name="VBoxContainer" type="VBoxContainer" parent="UI/Control/MarginContainer/Panel/Tabs/CenterContainer/GridContainer/CenterContainer4"]
margin_left = 250.0
margin_top = 238.0
margin_right = 610.0
margin_bottom = 621.0

[node name="TextureRect" type="TextureRect" parent="UI/Control/MarginContainer/Panel/Tabs/CenterContainer/GridContainer/CenterContainer4/VBoxContainer"]
margin_right = 360.0
margin_bottom = 360.0
texture = ExtResource( 22 )

[node name="Label" type="Label" parent="UI/Control/MarginContainer/Panel/Tabs/CenterContainer/GridContainer/CenterContainer4/VBoxContainer"]
margin_top = 364.0
margin_right = 360.0
margin_bottom = 378.0
custom_colors/font_color = Color( 1, 1, 1, 1 )
text = "Monster Name"
align = 1

[node name="ProgressBar" type="ProgressBar" parent="UI/Control/MarginContainer/Panel/Tabs/CenterContainer/GridContainer/CenterContainer4/VBoxContainer"]
margin_top = 382.0
margin_right = 360.0
margin_bottom = 383.0
custom_styles/fg = SubResource( 5 )
value = 50.0
percent_visible = false
__meta__ = {
"_edit_use_anchors_": false
}

[node name="CenterContainer5" type="CenterContainer" parent="UI/Control/MarginContainer/Panel/Tabs/CenterContainer/GridContainer"]
margin_left = 864.0
margin_top = 864.0
margin_right = 1724.0
margin_bottom = 1724.0
rect_min_size = Vector2( 860, 860 )

[node name="VBoxContainer" type="VBoxContainer" parent="UI/Control/MarginContainer/Panel/Tabs/CenterContainer/GridContainer/CenterContainer5"]
margin_left = 250.0
margin_top = 238.0
margin_right = 610.0
margin_bottom = 621.0

[node name="TextureRect" type="TextureRect" parent="UI/Control/MarginContainer/Panel/Tabs/CenterContainer/GridContainer/CenterContainer5/VBoxContainer"]
margin_right = 360.0
margin_bottom = 360.0
texture = ExtResource( 22 )

[node name="Label" type="Label" parent="UI/Control/MarginContainer/Panel/Tabs/CenterContainer/GridContainer/CenterContainer5/VBoxContainer"]
margin_top = 364.0
margin_right = 360.0
margin_bottom = 378.0
custom_colors/font_color = Color( 1, 1, 1, 1 )
text = "Monster Name"
align = 1

[node name="ProgressBar" type="ProgressBar" parent="UI/Control/MarginContainer/Panel/Tabs/CenterContainer/GridContainer/CenterContainer5/VBoxContainer"]
margin_top = 382.0
margin_right = 360.0
margin_bottom = 383.0
custom_styles/fg = SubResource( 5 )
value = 50.0
percent_visible = false
__meta__ = {
"_edit_use_anchors_": false
}

[node name="CenterContainer6" type="CenterContainer" parent="UI/Control/MarginContainer/Panel/Tabs/CenterContainer/GridContainer"]
margin_left = 1728.0
margin_top = 864.0
margin_right = 2588.0
margin_bottom = 1724.0
rect_min_size = Vector2( 860, 860 )

[node name="VBoxContainer" type="VBoxContainer" parent="UI/Control/MarginContainer/Panel/Tabs/CenterContainer/GridContainer/CenterContainer6"]
margin_left = 250.0
margin_top = 238.0
margin_right = 610.0
margin_bottom = 621.0

[node name="TextureRect" type="TextureRect" parent="UI/Control/MarginContainer/Panel/Tabs/CenterContainer/GridContainer/CenterContainer6/VBoxContainer"]
margin_right = 360.0
margin_bottom = 360.0
texture = ExtResource( 22 )

[node name="Label" type="Label" parent="UI/Control/MarginContainer/Panel/Tabs/CenterContainer/GridContainer/CenterContainer6/VBoxContainer"]
margin_top = 364.0
margin_right = 360.0
margin_bottom = 378.0
custom_colors/font_color = Color( 1, 1, 1, 1 )
text = "Monster Name"
align = 1

[node name="ProgressBar" type="ProgressBar" parent="UI/Control/MarginContainer/Panel/Tabs/CenterContainer/GridContainer/CenterContainer6/VBoxContainer"]
margin_top = 382.0
margin_right = 360.0
margin_bottom = 383.0
custom_styles/fg = SubResource( 5 )
value = 50.0
percent_visible = false
__meta__ = {
"_edit_use_anchors_": false
}
[connection signal="body_entered" from="OverworldYsort/GateSouth" to="." method="_on_Area2D_body_entered" binds= [ 0 ]]
[connection signal="body_entered" from="OverworldYsort/GateEast" to="." method="_on_Area2D_body_entered" binds= [ 1 ]]
[connection signal="body_entered" from="OverworldYsort/GateWest" to="." method="_on_Area2D_body_entered" binds= [ 2 ]]
