[gd_scene load_steps=6 format=2]

[ext_resource path="res://resources/fonts/impl/BattleUnitUIName.tres" type="DynamicFont" id=1]
[ext_resource path="res://scenes/battle3D/StanceButtonGroup.tres" type="ButtonGroup" id=2]

[sub_resource type="StyleBoxFlat" id=1]
bg_color = Color( 1, 1, 1, 0.764706 )
corner_radius_top_left = 8
corner_radius_top_right = 8
corner_radius_bottom_right = 8
corner_radius_bottom_left = 8

[sub_resource type="StyleBoxFlat" id=2]
bg_color = Color( 0, 0.545098, 0.701961, 0.721569 )
corner_radius_top_left = 8
corner_radius_top_right = 8
corner_radius_bottom_right = 8
corner_radius_bottom_left = 8

[sub_resource type="StyleBoxFlat" id=3]
bg_color = Color( 0.721569, 0.721569, 0.721569, 0.764706 )
corner_radius_top_left = 8
corner_radius_top_right = 8
corner_radius_bottom_right = 8
corner_radius_bottom_left = 8

[node name="Button" type="Button"]
margin_right = 55.0
margin_bottom = 20.0
rect_min_size = Vector2( 100, 0 )
size_flags_horizontal = 3
size_flags_vertical = 3
custom_styles/hover = SubResource( 1 )
custom_styles/pressed = SubResource( 2 )
custom_styles/disabled = SubResource( 3 )
custom_styles/normal = SubResource( 1 )
custom_fonts/font = ExtResource( 1 )
custom_colors/font_color_disabled = Color( 0.286275, 0.286275, 0.286275, 1 )
custom_colors/font_color = Color( 0, 0, 0, 1 )
custom_colors/font_color_hover = Color( 0.0901961, 0.501961, 0.831373, 1 )
toggle_mode = true
group = ExtResource( 2 )
text = "Button"
__meta__ = {
"_edit_use_anchors_": false
}
