[gd_scene load_steps=7 format=2]

[ext_resource path="res://resources/fonts/impl/BattleUnitUIName.tres" type="DynamicFont" id=1]
[ext_resource path="res://scenes/battle3D/SwitchButton.gd" type="Script" id=2]

[sub_resource type="StyleBoxFlat" id=1]
bg_color = Color( 0.52549, 0.52549, 0.52549, 0.894118 )
corner_radius_top_left = 12
corner_radius_top_right = 12
corner_radius_bottom_right = 12
corner_radius_bottom_left = 12

[sub_resource type="StyleBoxFlat" id=2]
bg_color = Color( 0, 0.568627, 0.878431, 0.827451 )
corner_radius_top_left = 12
corner_radius_top_right = 12
corner_radius_bottom_right = 12
corner_radius_bottom_left = 12

[sub_resource type="StyleBoxFlat" id=3]
bg_color = Color( 0.0980392, 0.0980392, 0.0980392, 0.886275 )
corner_radius_top_left = 12
corner_radius_top_right = 12
corner_radius_bottom_right = 12
corner_radius_bottom_left = 12

[sub_resource type="StyleBoxFlat" id=4]
bg_color = Color( 0.32549, 0.32549, 0.32549, 0.87451 )
corner_radius_top_left = 12
corner_radius_top_right = 12
corner_radius_bottom_right = 12
corner_radius_bottom_left = 12

[node name="SwitchButton" type="Button"]
margin_right = 200.0
margin_bottom = 22.0
rect_min_size = Vector2( 200, 0 )
size_flags_vertical = 3
custom_styles/hover = SubResource( 1 )
custom_styles/pressed = SubResource( 2 )
custom_styles/disabled = SubResource( 3 )
custom_styles/normal = SubResource( 4 )
custom_fonts/font = ExtResource( 1 )
text = "Name Lvl: 100"
clip_text = true
script = ExtResource( 2 )
__meta__ = {
"_edit_use_anchors_": false
}
